{
    
	"parent": "block/outer_stairs",
    
	"textures": 
	{
        
		"bottom": "moolands:block/moo_rock_bricks",
        
		"top": "moolands:block/moo_rock_bricks",
        
		"side": "moolands:block/moo_rock_bricks"
    
	}

}
